{
  "actionErrors":[

  ],
  "actionMessages":[

  ],
  "errorMessages":[

  ],
  "errors":{

  },
  "fieldErrors":{

  },
  "isPagination":"true",
  "jsonCallBack":"jsonpCallback21895",
  "locale":"zh_CN",
  "pageHelp":{
    "beginPage":3,
    "cacheSize":1,
    "data":[
      {
        "STAT_DATE":"2020-11-26",
        "ETF_TYPE":"单市",
        "SEC_CODE":"510850",
        "NUM":"51",
        "SEC_NAME":"工银上50",
        "TOT_VOL":"9829.89"
      },
      {
        "STAT_DATE":"2020-11-26",
        "ETF_TYPE":"单市",
        "SEC_CODE":"510880",
        "NUM":"52",
        "SEC_NAME":"红利ETF",
        "TOT_VOL":"222367.57"
      },
      {
        "STAT_DATE":"2020-11-26",
        "ETF_TYPE":"单市",
        "SEC_CODE":"510890",
        "NUM":"53",
        "SEC_NAME":"红利低波",
        "TOT_VOL":"27456.17"
      },
      {
        "STAT_DATE":"2020-11-26",
        "ETF_TYPE":"跨境",
        "SEC_CODE":"510900",
        "NUM":"54",
        "SEC_NAME":"H股ETF",
        "TOT_VOL":"897702.19"
      },
      {
        "STAT_DATE":"2020-11-26",
        "ETF_TYPE":"单市",
        "SEC_CODE":"511000",
        "NUM":"55",
        "SEC_NAME":"长三角债",
        "TOT_VOL":"565.3"
      },
      {
        "STAT_DATE":"2020-11-26",
        "ETF_TYPE":"单市",
        "SEC_CODE":"511010",
        "NUM":"56",
        "SEC_NAME":"国债ETF",
        "TOT_VOL":"879.63"
      },
      {
        "STAT_DATE":"2020-11-26",
        "ETF_TYPE":"单市",
        "SEC_CODE":"511020",
        "NUM":"57",
        "SEC_NAME":"活跃国债",
        "TOT_VOL":"1090.17"
      },
      {
        "STAT_DATE":"2020-11-26",
        "ETF_TYPE":"单市",
        "SEC_CODE":"511030",
        "NUM":"58",
        "SEC_NAME":"公司债",
        "TOT_VOL":"5049.07"
      },
      {
        "STAT_DATE":"2020-11-26",
        "ETF_TYPE":"单市",
        "SEC_CODE":"511050",
        "NUM":"59",
        "SEC_NAME":"兴业地债",
        "TOT_VOL":"401.55"
      },
      {
        "STAT_DATE":"2020-11-26",
        "ETF_TYPE":"单市",
        "SEC_CODE":"511060",
        "NUM":"60",
        "SEC_NAME":"5年地债",
        "TOT_VOL":"549.63"
      },
      {
        "STAT_DATE":"2020-11-26",
        "ETF_TYPE":"单市",
        "SEC_CODE":"511180",
        "NUM":"61",
        "SEC_NAME":"上证转债",
        "TOT_VOL":"3585.97"
      },
      {
        "STAT_DATE":"2020-11-26",
        "ETF_TYPE":"单市",
        "SEC_CODE":"511220",
        "NUM":"62",
        "SEC_NAME":"城投ETF",
        "TOT_VOL":"1476.81"
      },
      {
        "STAT_DATE":"2020-11-26",
        "ETF_TYPE":"单市",
        "SEC_CODE":"511230",
        "NUM":"63",
        "SEC_NAME":"周期债",
        "TOT_VOL":"186.76"
      },
      {
        "STAT_DATE":"2020-11-26",
        "ETF_TYPE":"单市",
        "SEC_CODE":"511260",
        "NUM":"64",
        "SEC_NAME":"十年国债",
        "TOT_VOL":"842.65"
      },
      {
        "STAT_DATE":"2020-11-26",
        "ETF_TYPE":"单市",
        "SEC_CODE":"511270",
        "NUM":"65",
        "SEC_NAME":"10年地债",
        "TOT_VOL":"766.75"
      },
      {
        "STAT_DATE":"2020-11-26",
        "ETF_TYPE":"单市",
        "SEC_CODE":"511280",
        "NUM":"66",
        "SEC_NAME":"中期信用",
        "TOT_VOL":"27.73"
      },
      {
        "STAT_DATE":"2020-11-26",
        "ETF_TYPE":"单市",
        "SEC_CODE":"511310",
        "NUM":"67",
        "SEC_NAME":"十年债",
        "TOT_VOL":"27.3"
      },
      {
        "STAT_DATE":"2020-11-26",
        "ETF_TYPE":"单市",
        "SEC_CODE":"511360",
        "NUM":"68",
        "SEC_NAME":"短融ETF",
        "TOT_VOL":"176.66"
      },
      {
        "STAT_DATE":"2020-11-26",
        "ETF_TYPE":"单市",
        "SEC_CODE":"511380",
        "NUM":"69",
        "SEC_NAME":"转债ETF",
        "TOT_VOL":"10058.67"
      },
      {
        "STAT_DATE":"2020-11-26",
        "ETF_TYPE":"跨市",
        "SEC_CODE":"512000",
        "NUM":"70",
        "SEC_NAME":"券商ETF",
        "TOT_VOL":"1926091.77"
      },
      {
        "STAT_DATE":"2020-11-26",
        "ETF_TYPE":"跨市",
        "SEC_CODE":"512010",
        "NUM":"71",
        "SEC_NAME":"医药ETF",
        "TOT_VOL":"91117.37"
      },
      {
        "STAT_DATE":"2020-11-26",
        "ETF_TYPE":"跨市",
        "SEC_CODE":"512040",
        "NUM":"72",
        "SEC_NAME":"国信价值",
        "TOT_VOL":"14485.79"
      },
      {
        "STAT_DATE":"2020-11-26",
        "ETF_TYPE":"跨市",
        "SEC_CODE":"512070",
        "NUM":"73",
        "SEC_NAME":"非银ETF",
        "TOT_VOL":"107715.99"
      },
      {
        "STAT_DATE":"2020-11-26",
        "ETF_TYPE":"跨市",
        "SEC_CODE":"512090",
        "NUM":"74",
        "SEC_NAME":"MSCI易基",
        "TOT_VOL":"34359.23"
      },
      {
        "STAT_DATE":"2020-11-26",
        "ETF_TYPE":"跨市",
        "SEC_CODE":"512100",
        "NUM":"75",
        "SEC_NAME":"1000ETF",
        "TOT_VOL":"26689.2"
      }
    ],
    "endDate":null,
    "endPage":31,
    "objectResult":null,
    "pageCount":10,
    "pageNo":3,
    "pageSize":25,
    "searchDate":null,
    "sort":null,
    "startDate":null,
    "total":235
  },
  "pageNo":null,
  "pageSize":null,
  "queryDate":"",
  "result":[
    {
      "STAT_DATE":"2020-11-26",
      "ETF_TYPE":"单市",
      "SEC_CODE":"510850",
      "NUM":"51",
      "SEC_NAME":"工银上50",
      "TOT_VOL":"9829.89"
    },
    {
      "STAT_DATE":"2020-11-26",
      "ETF_TYPE":"单市",
      "SEC_CODE":"510880",
      "NUM":"52",
      "SEC_NAME":"红利ETF",
      "TOT_VOL":"222367.57"
    },
    {
      "STAT_DATE":"2020-11-26",
      "ETF_TYPE":"单市",
      "SEC_CODE":"510890",
      "NUM":"53",
      "SEC_NAME":"红利低波",
      "TOT_VOL":"27456.17"
    },
    {
      "STAT_DATE":"2020-11-26",
      "ETF_TYPE":"跨境",
      "SEC_CODE":"510900",
      "NUM":"54",
      "SEC_NAME":"H股ETF",
      "TOT_VOL":"897702.19"
    },
    {
      "STAT_DATE":"2020-11-26",
      "ETF_TYPE":"单市",
      "SEC_CODE":"511000",
      "NUM":"55",
      "SEC_NAME":"长三角债",
      "TOT_VOL":"565.3"
    },
    {
      "STAT_DATE":"2020-11-26",
      "ETF_TYPE":"单市",
      "SEC_CODE":"511010",
      "NUM":"56",
      "SEC_NAME":"国债ETF",
      "TOT_VOL":"879.63"
    },
    {
      "STAT_DATE":"2020-11-26",
      "ETF_TYPE":"单市",
      "SEC_CODE":"511020",
      "NUM":"57",
      "SEC_NAME":"活跃国债",
      "TOT_VOL":"1090.17"
    },
    {
      "STAT_DATE":"2020-11-26",
      "ETF_TYPE":"单市",
      "SEC_CODE":"511030",
      "NUM":"58",
      "SEC_NAME":"公司债",
      "TOT_VOL":"5049.07"
    },
    {
      "STAT_DATE":"2020-11-26",
      "ETF_TYPE":"单市",
      "SEC_CODE":"511050",
      "NUM":"59",
      "SEC_NAME":"兴业地债",
      "TOT_VOL":"401.55"
    },
    {
      "STAT_DATE":"2020-11-26",
      "ETF_TYPE":"单市",
      "SEC_CODE":"511060",
      "NUM":"60",
      "SEC_NAME":"5年地债",
      "TOT_VOL":"549.63"
    },
    {
      "STAT_DATE":"2020-11-26",
      "ETF_TYPE":"单市",
      "SEC_CODE":"511180",
      "NUM":"61",
      "SEC_NAME":"上证转债",
      "TOT_VOL":"3585.97"
    },
    {
      "STAT_DATE":"2020-11-26",
      "ETF_TYPE":"单市",
      "SEC_CODE":"511220",
      "NUM":"62",
      "SEC_NAME":"城投ETF",
      "TOT_VOL":"1476.81"
    },
    {
      "STAT_DATE":"2020-11-26",
      "ETF_TYPE":"单市",
      "SEC_CODE":"511230",
      "NUM":"63",
      "SEC_NAME":"周期债",
      "TOT_VOL":"186.76"
    },
    {
      "STAT_DATE":"2020-11-26",
      "ETF_TYPE":"单市",
      "SEC_CODE":"511260",
      "NUM":"64",
      "SEC_NAME":"十年国债",
      "TOT_VOL":"842.65"
    },
    {
      "STAT_DATE":"2020-11-26",
      "ETF_TYPE":"单市",
      "SEC_CODE":"511270",
      "NUM":"65",
      "SEC_NAME":"10年地债",
      "TOT_VOL":"766.75"
    },
    {
      "STAT_DATE":"2020-11-26",
      "ETF_TYPE":"单市",
      "SEC_CODE":"511280",
      "NUM":"66",
      "SEC_NAME":"中期信用",
      "TOT_VOL":"27.73"
    },
    {
      "STAT_DATE":"2020-11-26",
      "ETF_TYPE":"单市",
      "SEC_CODE":"511310",
      "NUM":"67",
      "SEC_NAME":"十年债",
      "TOT_VOL":"27.3"
    },
    {
      "STAT_DATE":"2020-11-26",
      "ETF_TYPE":"单市",
      "SEC_CODE":"511360",
      "NUM":"68",
      "SEC_NAME":"短融ETF",
      "TOT_VOL":"176.66"
    },
    {
      "STAT_DATE":"2020-11-26",
      "ETF_TYPE":"单市",
      "SEC_CODE":"511380",
      "NUM":"69",
      "SEC_NAME":"转债ETF",
      "TOT_VOL":"10058.67"
    },
    {
      "STAT_DATE":"2020-11-26",
      "ETF_TYPE":"跨市",
      "SEC_CODE":"512000",
      "NUM":"70",
      "SEC_NAME":"券商ETF",
      "TOT_VOL":"1926091.77"
    },
    {
      "STAT_DATE":"2020-11-26",
      "ETF_TYPE":"跨市",
      "SEC_CODE":"512010",
      "NUM":"71",
      "SEC_NAME":"医药ETF",
      "TOT_VOL":"91117.37"
    },
    {
      "STAT_DATE":"2020-11-26",
      "ETF_TYPE":"跨市",
      "SEC_CODE":"512040",
      "NUM":"72",
      "SEC_NAME":"国信价值",
      "TOT_VOL":"14485.79"
    },
    {
      "STAT_DATE":"2020-11-26",
      "ETF_TYPE":"跨市",
      "SEC_CODE":"512070",
      "NUM":"73",
      "SEC_NAME":"非银ETF",
      "TOT_VOL":"107715.99"
    },
    {
      "STAT_DATE":"2020-11-26",
      "ETF_TYPE":"跨市",
      "SEC_CODE":"512090",
      "NUM":"74",
      "SEC_NAME":"MSCI易基",
      "TOT_VOL":"34359.23"
    },
    {
      "STAT_DATE":"2020-11-26",
      "ETF_TYPE":"跨市",
      "SEC_CODE":"512100",
      "NUM":"75",
      "SEC_NAME":"1000ETF",
      "TOT_VOL":"26689.2"
    }
  ],
  "securityCode":"",
  "sqlId":"COMMON_SSE_ZQPZ_ETFZL_XXPL_ETFGM_SEARCH_L",
  "texts":null,
  "type":"",
  "validateCode":""
}